Práctica1/alu.vcd
$date
	Wed Oct 23 18:03:16 2024
$end
$version
	Icarus Verilog
$end
$timescale
	10ps
$end
$scope module alu_tb $end
$var wire 1 ! t_z $end
$var wire 1 " t_s $end
$var wire 1 # t_c $end
$var wire 4 $ t_R [3:0] $end
$var reg 1 % error $end
$var reg 1 & error_R $end
$var reg 1 ' error_c $end
$var reg 1 ( error_s $end
$var reg 1 ) error_z $end
$var reg 4 * t_A [3:0] $end
$var reg 4 + t_B [3:0] $end
$var reg 3 , t_Op [2:0] $end
$var reg 1 - t_cin $end
$var integer 32 . errores [31:0] $end
$scope module mat $end
$var wire 4 / A [3:0] $end
$var wire 4 0 B [3:0] $end
$var wire 3 1 Op [2:0] $end
$var wire 1 - c_in $end
$var wire 1 ! zero $end
$var wire 1 " sign $end
$var wire 4 2 resultado_sum [3:0] $end
$var wire 4 3 resultado_log [3:0] $end
$var wire 1 # carry $end
$var wire 4 4 R [3:0] $end
$var wire 4 5 Op2 [3:0] $end
$var wire 4 6 Op1 [3:0] $end
$scope module multiplexor $end
$var wire 4 7 Out [3:0] $end
$var wire 1 8 s $end
$var wire 4 9 sa [3:0] $end
$var wire 4 : sb [3:0] $end
$var wire 1 ; sn $end
$var wire 4 < B [3:0] $end
$var wire 4 = A [3:0] $end
$upscope $end
$scope module preprocesador $end
$var wire 4 > A [3:0] $end
$var wire 4 ? B [3:0] $end
$var wire 3 @ Op [2:0] $end
$var wire 1 A cpl $end
$var wire 4 B n0 [3:0] $end
$var wire 4 C n1 [3:0] $end
$var wire 1 D op1_A $end
$var wire 1 E op2_B $end
$var wire 4 F salida_mux_2 [3:0] $end
$var wire 4 G salida_mux_1 [3:0] $end
$var wire 1 H add1 $end
$var wire 4 I BMod [3:0] $end
$var wire 4 J AMod [3:0] $end
$scope module complemento $end
$var wire 1 A cp1 $end
$var wire 4 K Out [3:0] $end
$var wire 4 L Inp [3:0] $end
$upscope $end
$scope module mux_final $end
$var wire 4 M B [3:0] $end
$var wire 4 N Out [3:0] $end
$var wire 1 D s $end
$var wire 4 O sa [3:0] $end
$var wire 4 P sb [3:0] $end
$var wire 1 Q sn $end
$var wire 4 R A [3:0] $end
$upscope $end
$scope module mux_inicial $end
$var wire 4 S A [3:0] $end
$var wire 4 T B [3:0] $end
$var wire 4 U Out [3:0] $end
$var wire 1 E s $end
$var wire 4 V sa [3:0] $end
$var wire 4 W sb [3:0] $end
$var wire 1 X sn $end
$upscope $end
$scope module mux_segundo $end
$var wire 4 Y A [3:0] $end
$var wire 4 Z B [3:0] $end
$var wire 4 [ Out [3:0] $end
$var wire 1 H s $end
$var wire 4 \ sa [3:0] $end
$var wire 4 ] sb [3:0] $end
$var wire 1 ^ sn $end
$upscope $end
$upscope $end
$scope module sumador $end
$var wire 4 _ A [3:0] $end
$var wire 4 ` B [3:0] $end
$var wire 1 - c_in $end
$var wire 1 # c_out $end
$var wire 1 a c3 $end
$var wire 1 b c2 $end
$var wire 1 c c1 $end
$var wire 4 d S [3:0] $end
$scope module fa1 $end
$var wire 1 e a $end
$var wire 1 f b $end
$var wire 1 - c_in $end
$var wire 1 g sum $end
$var wire 1 c c_out $end
$upscope $end
$scope module fa2 $end
$var wire 1 h a $end
$var wire 1 i b $end
$var wire 1 c c_in $end
$var wire 1 j sum $end
$var wire 1 b c_out $end
$upscope $end
$scope module fa3 $end
$var wire 1 k a $end
$var wire 1 l b $end
$var wire 1 b c_in $end
$var wire 1 m sum $end
$var wire 1 a c_out $end
$upscope $end
$scope module fa4 $end
$var wire 1 n a $end
$var wire 1 o b $end
$var wire 1 a c_in $end
$var wire 1 p sum $end
$var wire 1 # c_out $end
$upscope $end
$upscope $end
$scope module unidad_logica $end
$var wire 4 q A [3:0] $end
$var wire 4 r B [3:0] $end
$var wire 2 s S [1:0] $end
$var wire 4 t Out [3:0] $end
$scope module c1 $end
$var wire 2 u S [1:0] $end
$var wire 1 v a $end
$var wire 1 w b $end
$var wire 1 x s1 $end
$var wire 1 y s2 $end
$var wire 1 z s3 $end
$var wire 1 { s4 $end
$var wire 1 | out $end
$scope module mux $end
$var wire 2 } S [1:0] $end
$var wire 1 x a $end
$var wire 1 y b $end
$var wire 1 z c $end
$var wire 1 { d $end
$var reg 1 | out $end
$upscope $end
$upscope $end
$scope module c2 $end
$var wire 2 ~ S [1:0] $end
$var wire 1 !" a $end
$var wire 1 "" b $end
$var wire 1 #" s1 $end
$var wire 1 $" s2 $end
$var wire 1 %" s3 $end
$var wire 1 &" s4 $end
$var wire 1 '" out $end
$scope module mux $end
$var wire 2 (" S [1:0] $end
$var wire 1 #" a $end
$var wire 1 $" b $end
$var wire 1 %" c $end
$var wire 1 &" d $end
$var reg 1 '" out $end
$upscope $end
$upscope $end
$scope module c3 $end
$var wire 2 )" S [1:0] $end
$var wire 1 *" a $end
$var wire 1 +" b $end
$var wire 1 ," s1 $end
$var wire 1 -" s2 $end
$var wire 1 ." s3 $end
$var wire 1 /" s4 $end
$var wire 1 0" out $end
$scope module mux $end
$var wire 2 1" S [1:0] $end
$var wire 1 ," a $end
$var wire 1 -" b $end
$var wire 1 ." c $end
$var wire 1 /" d $end
$var reg 1 0" out $end
$upscope $end
$upscope $end
$scope module c4 $end
$var wire 2 2" S [1:0] $end
$var wire 1 3" a $end
$var wire 1 4" b $end
$var wire 1 5" s1 $end
$var wire 1 6" s2 $end
$var wire 1 7" s3 $end
$var wire 1 8" s4 $end
$var wire 1 9" out $end
$scope module mux $end
$var wire 2 :" S [1:0] $end
$var wire 1 5" a $end
$var wire 1 6" b $end
$var wire 1 7" c $end
$var wire 1 8" d $end
$var reg 1 9" out $end
$upscope $end
$upscope $end
$upscope $end
$upscope $end
$scope task check $end
$var reg 5 ;" expected_R [4:0] $end
$var reg 1 <" expected_c $end
$var reg 1 =" expected_s $end
$var reg 1 >" expected_z $end
$upscope $end
$upscope $end
$enddefinitions $end
$comment Show the parameter values. $end
$dumpall
$end
#0
$dumpvars
x>"
x="
x<"
bx ;"
b0 :"
09"
18"
07"
06"
05"
04"
03"
b0 2"
b0 1"
00"
1/"
0."
0-"
0,"
0+"
0*"
b0 )"
b0 ("
0'"
1&"
0%"
0$"
0#"
0""
0!"
b0 ~
b0 }
0|
1{
0z
0y
0x
0w
0v
b0 u
b0 t
b0 s
b0 r
b0 q
0p
0o
0n
0m
0l
0k
0j
0i
0h
0g
0f
0e
b0 d
0c
0b
0a
b0 `
b0 _
1^
b0 ]
b0 \
b0 [
b1 Z
b0 Y
1X
b0 W
b0 V
b0 U
b0 T
b0 S
b0 R
1Q
b0 P
b0 O
b0 N
b0 M
b0 L
b0 K
b0 J
b0 I
0H
b0 G
b0 F
0E
0D
b1 C
b0 B
0A
b0 @
b0 ?
b0 >
b0 =
b0 <
1;
b0 :
b0 9
08
b0 7
b0 6
b0 5
b0 4
b0 3
b0 2
b0 1
b0 0
b0 /
b0 .
0-
b0 ,
b0 +
b0 *
x)
x(
x'
x&
x%
b0 $
0#
0"
1!
$end
#1
0%
0)
0&
1>"
0'
0(
0="
0<"
b0 ;"
#1000
b1 +
b1 0
b1 ?
b1 T
#2000
b10 +
b10 0
b10 ?
b10 T
#3000
b11 +
b11 0
b11 ?
b11 T
#4000
b100 +
b100 0
b100 ?
b100 T
#5000
b101 +
b101 0
b101 ?
b101 T
#6000
b110 +
b110 0
b110 ?
b110 T
#7000
b111 +
b111 0
b111 ?
b111 T
#8000
b1000 +
b1000 0
b1000 ?
b1000 T
#9000
b1001 +
b1001 0
b1001 ?
b1001 T
#10000
b1010 +
b1010 0
b1010 ?
b1010 T
#11000
b1011 +
b1011 0
b1011 ?
b1011 T
#12000
b1100 +
b1100 0
b1100 ?
b1100 T
#13000
b1101 +
b1101 0
b1101 ?
b1101 T
#14000
b1110 +
b1110 0
b1110 ?
b1110 T
#15000
b1111 +
b1111 0
b1111 ?
b1111 T
#16000
0!
b1 $
b1 4
b1 7
b1 9
b1 2
b1 =
b1 d
1g
1y
1z
1f
1w
b1 5
b1 I
b1 K
b1 `
b1 r
b1 G
b1 L
b1 U
b1 V
b1 *
b1 /
b1 >
b1 M
b1 S
b0 +
b0 0
b0 ?
b0 T
#16001
0>"
b1 ;"
#17000
b1 +
b1 0
b1 ?
b1 T
#18000
b10 +
b10 0
b10 ?
b10 T
#19000
b11 +
b11 0
b11 ?
b11 T
#20000
b100 +
b100 0
b100 ?
b100 T
#21000
b101 +
b101 0
b101 ?
b101 T
#22000
b110 +
b110 0
b110 ?
b110 T
#23000
b111 +
b111 0
b111 ?
b111 T
#24000
b1000 +
b1000 0
b1000 ?
b1000 T
#25000
b1001 +
b1001 0
b1001 ?
b1001 T
#26000
b1010 +
b1010 0
b1010 ?
b1010 T
#27000
b1011 +
b1011 0
b1011 ?
b1011 T
#28000
b1100 +
b1100 0
b1100 ?
b1100 T
#29000
b1101 +
b1101 0
b1101 ?
b1101 T
#30000
b1110 +
b1110 0
b1110 ?
b1110 T
#31000
b1111 +
b1111 0
b1111 ?
b1111 T
#32000
b10 $
b10 4
b10 7
b10 9
1j
1$"
1%"
b10 2
b10 =
b10 d
0g
0y
0z
1i
1""
0f
0w
b10 5
b10 I
b10 K
b10 `
b10 r
b10 G
b10 L
b10 U
b10 V
b10 *
b10 /
b10 >
b10 M
b10 S
b0 +
b0 0
b0 ?
b0 T
#32001
b10 ;"
#33000
b1 +
b1 0
b1 ?
b1 T
#34000
b10 +
b10 0
b10 ?
b10 T
#35000
b11 +
b11 0
b11 ?
b11 T
#36000
b100 +
b100 0
b100 ?
b100 T
#37000
b101 +
b101 0
b101 ?
b101 T
#38000
b110 +
b110 0
b110 ?
b110 T
#39000
b111 +
b111 0
b111 ?
b111 T
#40000
b1000 +
b1000 0
b1000 ?
b1000 T
#41000
b1001 +
b1001 0
b1001 ?
b1001 T
#42000
b1010 +
b1010 0
b1010 ?
b1010 T
#43000
b1011 +
b1011 0
b1011 ?
b1011 T
#44000
b1100 +
b1100 0
b1100 ?
b1100 T
#45000
b1101 +
b1101 0
b1101 ?
b1101 T
#46000
b1110 +
b1110 0
b1110 ?
b1110 T
#47000
b1111 +
b1111 0
b1111 ?
b1111 T
#48000
b11 $
b11 4
b11 7
b11 9
b11 2
b11 =
b11 d
1g
1y
1z
1f
1w
b11 5
b11 I
b11 K
b11 `
b11 r
b11 G
b11 L
b11 U
b11 V
b11 *
b11 /
b11 >
b11 M
b11 S
b0 +
b0 0
b0 ?
b0 T
#48001
b11 ;"
#49000
b1 +
b1 0
b1 ?
b1 T
#50000
b10 +
b10 0
b10 ?
b10 T
#51000
b11 +
b11 0
b11 ?
b11 T
#52000
b100 +
b100 0
b100 ?
b100 T
#53000
b101 +
b101 0
b101 ?
b101 T
#54000
b110 +
b110 0
b110 ?
b110 T
#55000
b111 +
b111 0
b111 ?
b111 T
#56000
b1000 +
b1000 0
b1000 ?
b1000 T
#57000
b1001 +
b1001 0
b1001 ?
b1001 T
#58000
b1010 +
b1010 0
b1010 ?
b1010 T
#59000
b1011 +
b1011 0
b1011 ?
b1011 T
#60000
b1100 +
b1100 0
b1100 ?
b1100 T
#61000
b1101 +
b1101 0
b1101 ?
b1101 T
#62000
b1110 +
b1110 0
b1110 ?
b1110 T
#63000
b1111 +
b1111 0
b1111 ?
b1111 T
#64000
b100 $
b100 4
b100 7
b100 9
1m
1-"
1."
0j
0$"
0%"
b100 2
b100 =
b100 d
0g
0y
0z
1l
1+"
0i
0""
0f
0w
b100 5
b100 I
b100 K
b100 `
b100 r
b100 G
b100 L
b100 U
b100 V
b100 *
b100 /
b100 >
b100 M
b100 S
b0 +
b0 0
b0 ?
b0 T
#64001
b100 ;"
#65000
b1 +
b1 0
b1 ?
b1 T
#66000
b10 +
b10 0
b10 ?
b10 T
#67000
b11 +
b11 0
b11 ?
b11 T
#68000
b100 +
b100 0
b100 ?
b100 T
#69000
b101 +
b101 0
b101 ?
b101 T
#70000
b110 +
b110 0
b110 ?
b110 T
#71000
b111 +
b111 0
b111 ?
b111 T
#72000
b1000 +
b1000 0
b1000 ?
b1000 T
#73000
b1001 +
b1001 0
b1001 ?
b1001 T
#74000
b1010 +
b1010 0
b1010 ?
b1010 T
#75000
b1011 +
b1011 0
b1011 ?
b1011 T
#76000
b1100 +
b1100 0
b1100 ?
b1100 T
#77000
b1101 +
b1101 0
b1101 ?
b1101 T
#78000
b1110 +
b1110 0
b1110 ?
b1110 T
#79000
b1111 +
b1111 0
b1111 ?
b1111 T
#80000
b101 $
b101 4
b101 7
b101 9
b101 2
b101 =
b101 d
1g
1y
1z
1f
1w
b101 5
b101 I
b101 K
b101 `
b101 r
b101 G
b101 L
b101 U
b101 V
b101 *
b101 /
b101 >
b101 M
b101 S
b0 +
b0 0
b0 ?
b0 T
#80001
b101 ;"
#81000
b1 +
b1 0
b1 ?
b1 T
#82000
b10 +
b10 0
b10 ?
b10 T
#83000
b11 +
b11 0
b11 ?
b11 T
#84000
b100 +
b100 0
b100 ?
b100 T
#85000
b101 +
b101 0
b101 ?
b101 T
#86000
b110 +
b110 0
b110 ?
b110 T
#87000
b111 +
b111 0
b111 ?
b111 T
#88000
b1000 +
b1000 0
b1000 ?
b1000 T
#89000
b1001 +
b1001 0
b1001 ?
b1001 T
#90000
b1010 +
b1010 0
b1010 ?
b1010 T
#91000
b1011 +
b1011 0
b1011 ?
b1011 T
#92000
b1100 +
b1100 0
b1100 ?
b1100 T
#93000
b1101 +
b1101 0
b1101 ?
b1101 T
#94000
b1110 +
b1110 0
b1110 ?
b1110 T
#95000
b1111 +
b1111 0
b1111 ?
b1111 T
#96000
b110 $
b110 4
b110 7
b110 9
1j
1$"
1%"
b110 2
b110 =
b110 d
0g
0y
0z
1i
1""
0f
0w
b110 5
b110 I
b110 K
b110 `
b110 r
b110 G
b110 L
b110 U
b110 V
b110 *
b110 /
b110 >
b110 M
b110 S
b0 +
b0 0
b0 ?
b0 T
#96001
b110 ;"
#97000
b1 +
b1 0
b1 ?
b1 T
#98000
b10 +
b10 0
b10 ?
b10 T
#99000
b11 +
b11 0
b11 ?
b11 T
#100000
b100 +
b100 0
b100 ?
b100 T
#101000
b101 +
b101 0
b101 ?
b101 T
#102000
b110 +
b110 0
b110 ?
b110 T
#103000
b111 +
b111 0
b111 ?
b111 T
#104000
b1000 +
b1000 0
b1000 ?
b1000 T
#105000
b1001 +
b1001 0
b1001 ?
b1001 T
#106000
b1010 +
b1010 0
b1010 ?
b1010 T
#107000
b1011 +
b1011 0
b1011 ?
b1011 T
#108000
b1100 +
b1100 0
b1100 ?
b1100 T
#109000
b1101 +
b1101 0
b1101 ?
b1101 T
#110000
b1110 +
b1110 0
b1110 ?
b1110 T
#111000
b1111 +
b1111 0
b1111 ?
b1111 T
#112000
b111 $
b111 4
b111 7
b111 9
b111 2
b111 =
b111 d
1g
1y
1z
1f
1w
b111 5
b111 I
b111 K
b111 `
b111 r
b111 G
b111 L
b111 U
b111 V
b111 *
b111 /
b111 >
b111 M
b111 S
b0 +
b0 0
b0 ?
b0 T
#112001
b111 ;"
#113000
b1 +
b1 0
b1 ?
b1 T
#114000
b10 +
b10 0
b10 ?
b10 T
#115000
b11 +
b11 0
b11 ?
b11 T
#116000
b100 +
b100 0
b100 ?
b100 T
#117000
b101 +
b101 0
b101 ?
b101 T
#118000
b110 +
b110 0
b110 ?
b110 T
#119000
b111 +
b111 0
b111 ?
b111 T
#120000
b1000 +
b1000 0
b1000 ?
b1000 T
#121000
b1001 +
b1001 0
b1001 ?
b1001 T
#122000
b1010 +
b1010 0
b1010 ?
b1010 T
#123000
b1011 +
b1011 0
b1011 ?
b1011 T
#124000
b1100 +
b1100 0
b1100 ?
b1100 T
#125000
b1101 +
b1101 0
b1101 ?
b1101 T
#126000
b1110 +
b1110 0
b1110 ?
b1110 T
#127000
b1111 +
b1111 0
b1111 ?
b1111 T
#128000
1"
b1000 $
b1000 4
b1000 7
b1000 9
1p
16"
17"
0m
0-"
0."
0j
0$"
0%"
b1000 2
b1000 =
b1000 d
0g
0y
0z
1o
14"
0l
0+"
0i
0""
0f
0w
b1000 5
b1000 I
b1000 K
b1000 `
b1000 r
b1000 G
b1000 L
b1000 U
b1000 V
b1000 *
b1000 /
b1000 >
b1000 M
b1000 S
b0 +
b0 0
b0 ?
b0 T
#128001
1="
b1000 ;"
#129000
b1 +
b1 0
b1 ?
b1 T
#130000
b10 +
b10 0
b10 ?
b10 T
#131000
b11 +
b11 0
b11 ?
b11 T
#132000
b100 +
b100 0
b100 ?
b100 T
#133000
b101 +
b101 0
b101 ?
b101 T
#134000
b110 +
b110 0
b110 ?
b110 T
#135000
b111 +
b111 0
b111 ?
b111 T
#136000
b1000 +
b1000 0
b1000 ?
b1000 T
#137000
b1001 +
b1001 0
b1001 ?
b1001 T
#138000
b1010 +
b1010 0
b1010 ?
b1010 T
#139000
b1011 +
b1011 0
b1011 ?
b1011 T
#140000
b1100 +
b1100 0
b1100 ?
b1100 T
#141000
b1101 +
b1101 0
b1101 ?
b1101 T
#142000
b1110 +
b1110 0
b1110 ?
b1110 T
#143000
b1111 +
b1111 0
b1111 ?
b1111 T
#144000
b1001 $
b1001 4
b1001 7
b1001 9
b1001 2
b1001 =
b1001 d
1g
1y
1z
1f
1w
b1001 5
b1001 I
b1001 K
b1001 `
b1001 r
b1001 G
b1001 L
b1001 U
b1001 V
b1001 *
b1001 /
b1001 >
b1001 M
b1001 S
b0 +
b0 0
b0 ?
b0 T
#144001
b1001 ;"
#145000
b1 +
b1 0
b1 ?
b1 T
#146000
b10 +
b10 0
b10 ?
b10 T
#147000
b11 +
b11 0
b11 ?
b11 T
#148000
b100 +
b100 0
b100 ?
b100 T
#149000
b101 +
b101 0
b101 ?
b101 T
#150000
b110 +
b110 0
b110 ?
b110 T
#151000
b111 +
b111 0
b111 ?
b111 T
#152000
b1000 +
b1000 0
b1000 ?
b1000 T
#153000
b1001 +
b1001 0
b1001 ?
b1001 T
#154000
b1010 +
b1010 0
b1010 ?
b1010 T
#155000
b1011 +
b1011 0
b1011 ?
b1011 T
#156000
b1100 +
b1100 0
b1100 ?
b1100 T
#157000
b1101 +
b1101 0
b1101 ?
b1101 T
#158000
b1110 +
b1110 0
b1110 ?
b1110 T
#159000
b1111 +
b1111 0
b1111 ?
b1111 T
#160000
b1010 $
b1010 4
b1010 7
b1010 9
1j
1$"
1%"
b1010 2
b1010 =
b1010 d
0g
0y
0z
1i
1""
0f
0w
b1010 5
b1010 I
b1010 K
b1010 `
b1010 r
b1010 G
b1010 L
b1010 U
b1010 V
b1010 *
b1010 /
b1010 >
b1010 M
b1010 S
b0 +
b0 0
b0 ?
b0 T
#160001
b1010 ;"
#161000
b1 +
b1 0
b1 ?
b1 T
#162000
b10 +
b10 0
b10 ?
b10 T
#163000
b11 +
b11 0
b11 ?
b11 T
#164000
b100 +
b100 0
b100 ?
b100 T
#165000
b101 +
b101 0
b101 ?
b101 T
#166000
b110 +
b110 0
b110 ?
b110 T
#167000
b111 +
b111 0
b111 ?
b111 T
#168000
b1000 +
b1000 0
b1000 ?
b1000 T
#169000
b1001 +
b1001 0
b1001 ?
b1001 T
#170000
b1010 +
b1010 0
b1010 ?
b1010 T
#171000
b1011 +
b1011 0
b1011 ?
b1011 T
#172000
b1100 +
b1100 0
b1100 ?
b1100 T
#173000
b1101 +
b1101 0
b1101 ?
b1101 T
#174000
b1110 +
b1110 0
b1110 ?
b1110 T
#175000
b1111 +
b1111 0
b1111 ?
b1111 T
#176000
b1011 $
b1011 4
b1011 7
b1011 9
b1011 2
b1011 =
b1011 d
1g
1y
1z
1f
1w
b1011 5
b1011 I
b1011 K
b1011 `
b1011 r
b1011 G
b1011 L
b1011 U
b1011 V
b1011 *
b1011 /
b1011 >
b1011 M
b1011 S
b0 +
b0 0
b0 ?
b0 T
#176001
b1011 ;"
#177000
b1 +
b1 0
b1 ?
b1 T
#178000
b10 +
b10 0
b10 ?
b10 T
#179000
b11 +
b11 0
b11 ?
b11 T
#180000
b100 +
b100 0
b100 ?
b100 T
#181000
b101 +
b101 0
b101 ?
b101 T
#182000
b110 +
b110 0
b110 ?
b110 T
#183000
b111 +
b111 0
b111 ?
b111 T
#184000
b1000 +
b1000 0
b1000 ?
b1000 T
#185000
b1001 +
b1001 0
b1001 ?
b1001 T
#186000
b1010 +
b1010 0
b1010 ?
b1010 T
#187000
b1011 +
b1011 0
b1011 ?
b1011 T
#188000
b1100 +
b1100 0
b1100 ?
b1100 T
#189000
b1101 +
b1101 0
b1101 ?
b1101 T
#190000
b1110 +
b1110 0
b1110 ?
b1110 T
#191000
b1111 +
b1111 0
b1111 ?
b1111 T
#192000
b1100 $
b1100 4
b1100 7
b1100 9
1m
1-"
1."
0j
0$"
0%"
b1100 2
b1100 =
b1100 d
0g
0y
0z
1l
1+"
0i
0""
0f
0w
b1100 5
b1100 I
b1100 K
b1100 `
b1100 r
b1100 G
b1100 L
b1100 U
b1100 V
b1100 *
b1100 /
b1100 >
b1100 M
b1100 S
b0 +
b0 0
b0 ?
b0 T
#192001
b1100 ;"
#193000
b1 +
b1 0
b1 ?
b1 T
#194000
b10 +
b10 0
b10 ?
b10 T
#195000
b11 +
b11 0
b11 ?
b11 T
#196000
b100 +
b100 0
b100 ?
b100 T
#197000
b101 +
b101 0
b101 ?
b101 T
#198000
b110 +
b110 0
b110 ?
b110 T
#199000
b111 +
b111 0
b111 ?
b111 T
#200000
b1000 +
b1000 0
b1000 ?
b1000 T
#201000
b1001 +
b1001 0
b1001 ?
b1001 T
#202000
b1010 +
b1010 0
b1010 ?
b1010 T
#203000
b1011 +
b1011 0
b1011 ?
b1011 T
#204000
b1100 +
b1100 0
b1100 ?
b1100 T
#205000
b1101 +
b1101 0
b1101 ?
b1101 T
#206000
b1110 +
b1110 0
b1110 ?
b1110 T
#207000
b1111 +
b1111 0
b1111 ?
b1111 T
#208000
b1101 $
b1101 4
b1101 7
b1101 9
b1101 2
b1101 =
b1101 d
1g
1y
1z
1f
1w
b1101 5
b1101 I
b1101 K
b1101 `
b1101 r
b1101 G
b1101 L
b1101 U
b1101 V
b1101 *
b1101 /
b1101 >
b1101 M
b1101 S
b0 +
b0 0
b0 ?
b0 T
#208001
b1101 ;"
#209000
b1 +
b1 0
b1 ?
b1 T
#210000
b10 +
b10 0
b10 ?
b10 T
#211000
b11 +
b11 0
b11 ?
b11 T
#212000
b100 +
b100 0
b100 ?
b100 T
#213000
b101 +
b101 0
b101 ?
b101 T
#214000
b110 +
b110 0
b110 ?
b110 T
#215000
b111 +
b111 0
b111 ?
b111 T
#216000
b1000 +
b1000 0
b1000 ?
b1000 T
#217000
b1001 +
b1001 0
b1001 ?
b1001 T
#218000
b1010 +
b1010 0
b1010 ?
b1010 T
#219000
b1011 +
b1011 0
b1011 ?
b1011 T
#220000
b1100 +
b1100 0
b1100 ?
b1100 T
#221000
b1101 +
b1101 0
b1101 ?
b1101 T
#222000
b1110 +
b1110 0
b1110 ?
b1110 T
#223000
b1111 +
b1111 0
b1111 ?
b1111 T
#224000
b1110 $
b1110 4
b1110 7
b1110 9
1j
1$"
1%"
b1110 2
b1110 =
b1110 d
0g
0y
0z
1i
1""
0f
0w
b1110 5
b1110 I
b1110 K
b1110 `
b1110 r
b1110 G
b1110 L
b1110 U
b1110 V
b1110 *
b1110 /
b1110 >
b1110 M
b1110 S
b0 +
b0 0
b0 ?
b0 T
#224001
b1110 ;"
#225000
b1 +
b1 0
b1 ?
b1 T
#226000
b10 +
b10 0
b10 ?
b10 T
#227000
b11 +
b11 0
b11 ?
b11 T
#228000
b100 +
b100 0
b100 ?
b100 T
#229000
b101 +
b101 0
b101 ?
b101 T
#230000
b110 +
b110 0
b110 ?
b110 T
#231000
b111 +
b111 0
b111 ?
b111 T
#232000
b1000 +
b1000 0
b1000 ?
b1000 T
#233000
b1001 +
b1001 0
b1001 ?
b1001 T
#234000
b1010 +
b1010 0
b1010 ?
b1010 T
#235000
b1011 +
b1011 0
b1011 ?
b1011 T
#236000
b1100 +
b1100 0
b1100 ?
b1100 T
#237000
b1101 +
b1101 0
b1101 ?
b1101 T
#238000
b1110 +
b1110 0
b1110 ?
b1110 T
#239000
b1111 +
b1111 0
b1111 ?
b1111 T
#240000
b1111 $
b1111 4
b1111 7
b1111 9
b1111 2
b1111 =
b1111 d
1g
1y
1z
1f
1w
b1111 5
b1111 I
b1111 K
b1111 `
b1111 r
b1111 G
b1111 L
b1111 U
b1111 V
b1111 *
b1111 /
b1111 >
b1111 M
b1111 S
b0 +
b0 0
b0 ?
b0 T
#240001
b1111 ;"
#241000
b1 +
b1 0
b1 ?
b1 T
#242000
b10 +
b10 0
b10 ?
b10 T
#243000
b11 +
b11 0
b11 ?
b11 T
#244000
b100 +
b100 0
b100 ?
b100 T
#245000
b101 +
b101 0
b101 ?
b101 T
#246000
b110 +
b110 0
b110 ?
b110 T
#247000
b111 +
b111 0
b111 ?
b111 T
#248000
b1000 +
b1000 0
b1000 ?
b1000 T
#249000
b1001 +
b1001 0
b1001 ?
b1001 T
#250000
b1010 +
b1010 0
b1010 ?
b1010 T
#251000
b1011 +
b1011 0
b1011 ?
b1011 T
#252000
b1100 +
b1100 0
b1100 ?
b1100 T
#253000
b1101 +
b1101 0
b1101 ?
b1101 T
#254000
b1110 +
b1110 0
b1110 ?
b1110 T
#255000
b1111 +
b1111 0
b1111 ?
b1111 T
#256000
0!
0"
06"
07"
0-"
0."
0$"
0%"
0y
0z
0o
04"
0l
0+"
0i
0""
0f
0w
0p
0#
b0 5
b0 I
b0 K
b0 `
b0 r
b1 $
b1 4
b1 7
0m
0a
b1 9
0j
0b
b0 G
b0 L
b0 U
b1 2
b1 =
b1 d
1g
0c
b0 V
1-
b0 *
b0 /
b0 >
b0 M
b0 S
b0 +
b0 0
b0 ?
b0 T
#256001
0="
b1 ;"
#257000
b1 +
b1 0
b1 ?
b1 T
#258000
b10 +
b10 0
b10 ?
b10 T
#259000
b11 +
b11 0
b11 ?
b11 T
#260000
b100 +
b100 0
b100 ?
b100 T
#261000
b101 +
b101 0
b101 ?
b101 T
#262000
b110 +
b110 0
b110 ?
b110 T
#263000
b111 +
b111 0
b111 ?
b111 T
#264000
b1000 +
b1000 0
b1000 ?
b1000 T
#265000
b1001 +
b1001 0
b1001 ?
b1001 T
#266000
b1010 +
b1010 0
b1010 ?
b1010 T
#267000
b1011 +
b1011 0
b1011 ?
b1011 T
#268000
b1100 +
b1100 0
b1100 ?
b1100 T
#269000
b1101 +
b1101 0
b1101 ?
b1101 T
#270000
b1110 +
b1110 0
b1110 ?
b1110 T
#271000
b1111 +
b1111 0
b1111 ?
b1111 T
#272000
b10 $
b10 4
b10 7
b10 9
1j
b10 2
b10 =
b10 d
0g
1c
1y
1z
1f
1w
b1 5
b1 I
b1 K
b1 `
b1 r
b1 G
b1 L
b1 U
b1 V
b1 *
b1 /
b1 >
b1 M
b1 S
b0 +
b0 0
b0 ?
b0 T
#272001
b10 ;"
#273000
b1 +
b1 0
b1 ?
b1 T
#274000
b10 +
b10 0
b10 ?
b10 T
#275000
b11 +
b11 0
b11 ?
b11 T
#276000
b100 +
b100 0
b100 ?
b100 T
#277000
b101 +
b101 0
b101 ?
b101 T
#278000
b110 +
b110 0
b110 ?
b110 T
#279000
b111 +
b111 0
b111 ?
b111 T
#280000
b1000 +
b1000 0
b1000 ?
b1000 T
#281000
b1001 +
b1001 0
b1001 ?
b1001 T
#282000
b1010 +
b1010 0
b1010 ?
b1010 T
#283000
b1011 +
b1011 0
b1011 ?
b1011 T
#284000
b1100 +
b1100 0
b1100 ?
b1100 T
#285000
b1101 +
b1101 0
b1101 ?
b1101 T
#286000
b1110 +
b1110 0
b1110 ?
b1110 T
#287000
b1111 +
b1111 0
b1111 ?
b1111 T
#288000
b11 $
b11 4
b11 7
b11 9
1$"
1%"
b11 2
b11 =
b11 d
1g
0c
0y
0z
1i
1""
0f
0w
b10 5
b10 I
b10 K
b10 `
b10 r
b10 G
b10 L
b10 U
b10 V
b10 *
b10 /
b10 >
b10 M
b10 S
b0 +
b0 0
b0 ?
b0 T
#288001
b11 ;"
#289000
b1 +
b1 0
b1 ?
b1 T
#290000
b10 +
b10 0
b10 ?
b10 T
#291000
b11 +
b11 0
b11 ?
b11 T
#292000
b100 +
b100 0
b100 ?
b100 T
#293000
b101 +
b101 0
b101 ?
b101 T
#294000
b110 +
b110 0
b110 ?
b110 T
#295000
b111 +
b111 0
b111 ?
b111 T
#296000
b1000 +
b1000 0
b1000 ?
b1000 T
#297000
b1001 +
b1001 0
b1001 ?
b1001 T
#298000
b1010 +
b1010 0
b1010 ?
b1010 T
#299000
b1011 +
b1011 0
b1011 ?
b1011 T
#300000
b1100 +
b1100 0
b1100 ?
b1100 T
#301000
b1101 +
b1101 0
b1101 ?
b1101 T
#302000
b1110 +
b1110 0
b1110 ?
b1110 T
#303000
b1111 +
b1111 0
b1111 ?
b1111 T
#304000
0!
b100 $
b100 4
b100 7
1m
b100 9
0j
1b
b100 2
b100 =
b100 d
0g
1c
1y
1z
1f
1w
b11 5
b11 I
b11 K
b11 `
b11 r
b11 G
b11 L
b11 U
b11 V
b11 *
b11 /
b11 >
b11 M
b11 S
b0 +
b0 0
b0 ?
b0 T
#304001
b100 ;"
#305000
b1 +
b1 0
b1 ?
b1 T
#306000
b10 +
b10 0
b10 ?
b10 T
#307000
b11 +
b11 0
b11 ?
b11 T
#308000
b100 +
b100 0
b100 ?
b100 T
#309000
b101 +
b101 0
b101 ?
b101 T
#310000
b110 +
b110 0
b110 ?
b110 T
#311000
b111 +
b111 0
b111 ?
b111 T
#312000
b1000 +
b1000 0
b1000 ?
b1000 T
#313000
b1001 +
b1001 0
b1001 ?
b1001 T
